\relax 
\@writefile{toc}{\contentsline {section}{\numberline {1}Introduction}{1}}
\@writefile{toc}{\contentsline {subsection}{\numberline {1.1}\LaTeXe  ---The new \LaTeX  \nobreakspace  {}release}{1}}
\@writefile{toc}{\contentsline {subsection}{\numberline {1.2}\LaTeX  3---The long-term future of \LaTeX  }{2}}
\newlabel{Sec:ltx3}{{1.2}{2}}
\newlabel{addrs}{{1.2}{2}}
\@writefile{toc}{\contentsline {subsection}{\numberline {1.3}Overview}{2}}
\citation{A-W:LLa94}
\citation{A-W:GMS94}
\citation{A-W:GRM97}
\citation{A-W:GR99}
\@writefile{toc}{\contentsline {subsection}{\numberline {1.4}Further information}{3}}
\@writefile{toc}{\contentsline {section}{\numberline {2}Classes and packages}{3}}
\newlabel{Sec:class+packages}{{2}{3}}
\@writefile{toc}{\contentsline {subsection}{\numberline {2.1}What are classes and packages?}{4}}
\@writefile{toc}{\contentsline {subsection}{\numberline {2.2}Class and package options}{5}}
\@writefile{toc}{\contentsline {subsection}{\numberline {2.3}Standard classes}{5}}
\@writefile{toc}{\contentsline {subsection}{\numberline {2.4}Standard packages}{6}}
\newlabel{Sec:st-pack}{{2.4}{6}}
\@writefile{toc}{\contentsline {subsection}{\numberline {2.5}Related software}{7}}
\@writefile{toc}{\contentsline {subsubsection}{\numberline {2.5.1}Tools}{8}}
\@writefile{toc}{\contentsline {section}{\numberline {3}Commands}{9}}
\newlabel{Sec:commands}{{3}{9}}
\@writefile{toc}{\contentsline {subsection}{\numberline {3.1}Initial commands}{9}}
\@writefile{toc}{\contentsline {subsection}{\numberline {3.2}Preamble commands}{9}}
\newlabel{Sec:pre}{{3.2}{9}}
\@writefile{toc}{\contentsline {subsection}{\numberline {3.3}Document structure}{11}}
\@writefile{toc}{\contentsline {subsection}{\numberline {3.4}Definitions}{11}}
\@writefile{toc}{\contentsline {subsection}{\numberline {3.5}Boxes}{13}}
\@writefile{toc}{\contentsline {subsection}{\numberline {3.6}Measuring things}{15}}
\@writefile{toc}{\contentsline {subsection}{\numberline {3.7}Line endings}{15}}
\@writefile{toc}{\contentsline {subsection}{\numberline {3.8}Controlling page breaks}{15}}
\@writefile{toc}{\contentsline {subsection}{\numberline {3.9}Floats}{16}}
\@writefile{toc}{\contentsline {subsection}{\numberline {3.10}Font changing: text}{16}}
\@writefile{toc}{\contentsline {subsection}{\numberline {3.11}Font changing: math}{17}}
\@writefile{toc}{\contentsline {subsection}{\numberline {3.12}Ensuring math mode}{18}}
\@writefile{toc}{\contentsline {subsection}{\numberline {3.13}Setting text superscripts}{18}}
\@writefile{toc}{\contentsline {subsection}{\numberline {3.14}Text commands: all encodings}{18}}
\@writefile{toc}{\contentsline {subsection}{\numberline {3.15}Text commands: the T1 encoding}{21}}
\@writefile{toc}{\contentsline {subsection}{\numberline {3.16}Logos}{22}}
\@writefile{toc}{\contentsline {subsection}{\numberline {3.17}Picture commands}{22}}
\@writefile{toc}{\contentsline {subsection}{\numberline {3.18}Old commands}{22}}
\@writefile{toc}{\contentsline {section}{\numberline {4}\LaTeX  \nobreakspace  {}2.09 documents}{23}}
\newlabel{Sec:209}{{4}{23}}
\@writefile{toc}{\contentsline {subsection}{\numberline {4.1}Warning}{23}}
\@writefile{toc}{\contentsline {subsection}{\numberline {4.2}Font selection problems}{24}}
\newlabel{Sec:fsprob}{{4.2}{24}}
\@writefile{toc}{\contentsline {subsection}{\numberline {4.3}Native mode}{25}}
\newlabel{Sec:native}{{4.3}{25}}
\@writefile{toc}{\contentsline {section}{\numberline {5}Local modifications}{25}}
\newlabel{sec:loc}{{5}{25}}
\@writefile{toc}{\contentsline {section}{\numberline {6}Problems}{26}}
\newlabel{Sec:problems}{{6}{26}}
\@writefile{toc}{\contentsline {subsection}{\numberline {6.1}New error messages}{26}}
\@writefile{toc}{\contentsline {subsection}{\numberline {6.2}Old internal commands}{27}}
\newlabel{Sec:oldinternals}{{6.2}{27}}
\@writefile{toc}{\contentsline {subsection}{\numberline {6.3}Old files}{28}}
\bibcite{A-W:GMS94}{1}
\bibcite{A-W:GRM97}{2}
\bibcite{A-W:GR99}{3}
\bibcite{A-W:DEK91}{4}
\bibcite{A-W:LLa94}{5}
\@writefile{toc}{\contentsline {subsection}{\numberline {6.4}Where to go for more help}{29}}
\@writefile{toc}{\contentsline {section}{\numberline {7}Enjoy!}{29}}
\newlabel{Sec:enjoy}{{7}{29}}
