Directory PATH listing for Volume CPP
A:. 
    README.DOC
    YYLEX.H
    CONST.H
    CPPCMAIN.H
    YYERR.H
    ERR.C
    YYTAB.H
    LINK.C
    NEW.C
    MAIN.C
    LEX.C
    FMT.C
    AGGR.C
    TYPE.C
    GEN.C
    FCT.C
    SOURCE.C
    GRAM.Y
    GLOBAL.H
    SOURCE.CPP
    MAKEFILE.MAK
    YYTAB.C
    PARTS.LST
                 
No sub-directories exist

